{
  "type": "service_account",
  "project_id": "haddaq-9e719",
  "private_key_id": "be0a1a884e9986cb441b7af02525bddd52ead8a1",
  "private_key": "-----BEGIN PRIVATE KEY-----\nMIIEvQIBADANBgkqhkiG9w0BAQEFAASCBKcwggSjAgEAAoIBAQDX1kvXR+TpOmIP\nc6QD1ALmeJifB4FDXoSVPU7T2u2kzS/xqonYI4OhR5Nx6F7NfWX1MuehtAISZGJN\nwaCgKHUJ4j7to2JIsF0G9GESmhP0TIZOLEEeMyr+tr/w0jFzGg+rj2jkJnscHFaE\nwCd1edMMtEn2rC+vTJMNi9D093vBDMpnJCLVvG7owfPRHMavYALuEQsvfhYT9lHL\n7ZFi1Y+PNnLuh8nvFBeviyLa09UlGDgenIDC/HuOLs96Qgzj2Dp+F57wacE+2Vjd\nz3np09VFD5Dnzpe6pxL1v0r+r6IZWAHvmFdIG02VaGlbLSBy1I8nkEKJRuuWD8pX\nI5dbFj1pAgMBAAECggEACRlY0icO60F8VSVtYoHuFgmQeZJ8lw/61pB37G4m0D3x\niaZvBY8duKSxU78q5qPPiAzmKfF87YnmK7FVfwWlms3lvulBNp+aFGB6Cn7iB3hb\nExxCKdlDX0CUtTzPO93Qj6LN67cEP/T2isXPrrVSOeS3LNspGXfzcmyUrwxoia9X\nWTq8T4gqYE1GjiHhpIy8Uhi9OYneVWWLCZe8lrC35rmnqRiaqJWb28SKJrIr843W\nHjeb2DkYZiJChYSQUibSTK3lUHEQja+Nk2asPgaLm1u/ZL5YK0IWfsrVeECDoNwD\nkGHqoKPTrMhQbqgl1/k/pabvy+0QYo2uFVcxnJQTlwKBgQD2L6XwMSXkTxiDyG1C\nPAJ4jRCV6GZzCZN2jzGeexYOzACr50QfQekptI9Qw7frQnPAQhNBm0hHK8R0DEF2\nxLul+2RsZPB4A3jtpWJBiL3y5ZRLxpTxgTgo+NPvwQVs0zHYMkZQGF8tLZtL1V4Z\nqWhauYsNm6hJeF11c0brjmoJuwKBgQDgcO71oiZ2yi93SQcCAmEughNIypTgbuK/\nJi1kcxfr7WU2uGsVseoyjyN8a8zFBGe+2S3tD082A/9Gnhl+4AtZpDV14FRM4lpT\nUZtR604pe1q1Rz1NTxtjyIGEIE8e1NxiEe9UlPvkjasusrWzJrijCtZLoHanN374\nfgEu1vihKwKBgQDdq+vLykVnPX1CdD9FK4nCCKsNgHR3UwEP+UHhhM1Ix5I3N4dU\naeHL5sRBIepCkNRvIk/6fBrp0tQS9lIf4mdgvmsfWwhX2DCUM520iq8Wvnf4fzfv\n+b2azuru8Cu1YLl6BVLgngFdSbqS3u3bR3oqbvVxbF5swU/OCN2sDtEWLwKBgG5k\nvfSNtBObsSsf/VVsrDY+/pNAKWgWwmq4sX0F6089LhpzLSC3qPUDWLX7I/YIC6tg\nkWlXrWNpJeerHek88/g8f5siIvTKJRl0O0xYy9I1fVFK4AkljthOp/3AEoqcsmV+\nYtScjyVE1V0bw6mBszFmxC7gl1v6PPamq5hJXnOPAoGAcFMzCId2WxFRfwWBMJL+\npW2khCiKSocHclh0RSult1SNigaSl1enehWsgtS2oPCt379ez9mnUyjQXqsomSZR\nMSHUS1NZoSvVnUZLFyYWgloHz+kXzyeSX8gQnBCXAI8Tmv44ExfUVGfNQcpxqSF4\ncVb+PPRVnCufKDXsnIRKzIo=\n-----END PRIVATE KEY-----\n",
  "client_email": "haddaq-9e719@appspot.gserviceaccount.com",
  "client_id": "102458133421014418054",
  "auth_uri": "https://accounts.google.com/o/oauth2/auth",
  "token_uri": "https://oauth2.googleapis.com/token",
  "auth_provider_x509_cert_url": "https://www.googleapis.com/oauth2/v1/certs",
  "client_x509_cert_url": "https://www.googleapis.com/robot/v1/metadata/x509/haddaq-9e719%40appspot.gserviceaccount.com"
}
