{
  "type": "service_account",
  "project_id": "haddaq-9e719",
  "private_key_id": "3a4cd066208b2b2c4ca93baedb4e496c41dc27a6",
  "private_key": "-----BEGIN PRIVATE KEY-----\nMIIEvQIBADANBgkqhkiG9w0BAQEFAASCBKcwggSjAgEAAoIBAQDCMyCrxB+uqzgK\nQdrY3KWLvduWrMj4/w0zpNhWIcQ8TObEPXq/EYPi43aRJ48iucNfK0FoR0QMNFTF\nN080ZxJCAfq67mI9Tq7l8r5yUlQUEl/sfSCohOnWjAkYbouVZxcyZRSw37zWitKV\nepRLLeI976aiTYd8C949WV99Tto6sm8uQrno81Psi6todkT9hNHympR+qON3OZ4Z\nNu6WxoeZQQ/21UxAoyVMBQW7Slw496hbd6BO/2zVPWrh9GMJpOw+FVg+qUzIh3l3\niTmDVnU+bzeEDCb/ivDvYkY0wJlM82dHKqaNWKtyCTc463AvcC4vgnrrjoxAPGik\nY3iA00t5AgMBAAECggEAVpbgcuYMcF/kqWIqt/ZOFCxv7FOXerqSgtv2IBWHP5HU\ndVyqTeZ75V8hv2AhqMymadlKHTplg4GT6KmcNdPdZrQmPVJMWGSshFhDhYri9V4q\nCjLSrIEzGJgw+AVWVKP2SmCapLDmLM0ST1csJwdK8O3Z4VVrWyqZicY/VwqhMHkW\nHbTLGbjrq5HNtzqA8fshr5dKzU77iVEv0zvv1psWftRMY3uajA5McQcuy/ahNMdz\nqdne6csmoeHV//oZGLXFkDizhZPPsEC0Xp9Qj2TwwQcz368Ji9PLOry2b5mQWBRK\n+PWP/GcsgfGsWGdWJqtMAnxMvtztrdgt79STJ/hyhwKBgQD5GTItQpiWXTyegcB9\nnYwLnhINnKIRYevhWFQiPcOUsOFW8HM7lVJ5jsO0GO1vUXDHczbGkmK4K9p3D0DT\nCSooXoouR9ZPrss6oqyO1sZuecGVVl9ofmIwu+Up+8xviKnPvMFMPgB2o9RlWV/X\nP4EcE2Kp5zW7tG1bLABZhCxfgwKBgQDHlIve51UJyDkE6UQqHLhEt+6droLqu64W\nAOXa5hgTB4mVbqcU2L2VZG8ZbKpDXUF7O4uM6/emoZOgtTLxKe6MVKLt83vCvaGF\nGjSZsI62Bptpg/ABr9rfTj1sStNWX/WD7F5iiDnohDrIhmCpLxFv8oRjEJIoQW6S\nwCwK9aocUwKBgQDasu9l41lacsOdGqgo4WCqdn69Kq7z+fgB4e4EHhwP+Pfuv688\nOc6uYNSb02Lq4CLXSeVmk/FOZ1ooO+EbJ6m2xcIl/fZAAWP2uAouYozXQ9jdR3b+\npC+LP/xkTulfZypH9B311V3My+vXi49kySGOx8pRB2kawr9cU5Z/AVeABwKBgEAO\nEx5FjOuI0ZQb8f66HQIhLnp5ShdgiS0SuLMa6lshLi1ByGpObfqGs4mrcLISOjP9\nFnryORfIAAOyZFk2phNwDqLkZLJJ/o8jrAIvwn31fOfOqrc/47WL/PbGxTGRttDS\nijCBnGReHCfDyT5DlwshARByfxZgecar2vbhhel1AoGAN52eYq5ZE6A6g5dYgHPe\nxH0GEmPG7LpYlu01aAIZ029M4SqUA+pta3h+QO06BcRfat/CCxl6doALxSYzXjNf\njqOXwyAusNjo3OWEg3Py/qu4Nc9IoaShYMMUsDe+lWjZZq50QSBQZrqCa7IjNG3X\nT8Aerp/mLu7kVnHneBHOjHo=\n-----END PRIVATE KEY-----\n",
  "client_email": "haddaqapiaccess@haddaq-9e719.iam.gserviceaccount.com",
  "client_id": "112678499907564768580",
  "auth_uri": "https://accounts.google.com/o/oauth2/auth",
  "token_uri": "https://oauth2.googleapis.com/token",
  "auth_provider_x509_cert_url": "https://www.googleapis.com/oauth2/v1/certs",
  "client_x509_cert_url": "https://www.googleapis.com/robot/v1/metadata/x509/haddaqapiaccess%40haddaq-9e719.iam.gserviceaccount.com"
}
